<?xml version="1.0" encoding="UTF-8" standalone="no"?>
<svg
   xmlns:dc="http://purl.org/dc/elements/1.1/"
   xmlns:cc="http://creativecommons.org/ns#"
   xmlns:rdf="http://www.w3.org/1999/02/22-rdf-syntax-ns#"
   xmlns:svg="http://www.w3.org/2000/svg"
   xmlns="http://www.w3.org/2000/svg"
   xmlns:sodipodi="http://sodipodi.sourceforge.net/DTD/sodipodi-0.dtd"
   xmlns:inkscape="http://www.inkscape.org/namespaces/inkscape"
   width="24px"
   height="24px"
   viewBox="0 0 24 24"
   version="1.1"
   id="svg13"
   sodipodi:docname="thumbs-up.svg"
   inkscape:version="0.92.3 (2405546, 2018-03-11)">
  <metadata
     id="metadata17">
    <rdf:RDF>
      <cc:Work
         rdf:about="">
        <dc:format>image/svg+xml</dc:format>
        <dc:type
           rdf:resource="http://purl.org/dc/dcmitype/StillImage" />
      </cc:Work>
    </rdf:RDF>
  </metadata>
  <sodipodi:namedview
     pagecolor="#ffffff"
     bordercolor="#666666"
     borderopacity="1"
     objecttolerance="10"
     gridtolerance="10"
     guidetolerance="10"
     inkscape:pageopacity="0"
     inkscape:pageshadow="2"
     inkscape:window-width="958"
     inkscape:window-height="1006"
     id="namedview15"
     showgrid="false"
     inkscape:zoom="9.8333333"
     inkscape:cx="12.101695"
     inkscape:cy="12"
     inkscape:window-x="2880"
     inkscape:window-y="43"
     inkscape:window-maximized="0"
     inkscape:current-layer="svg13" />
  <!-- Generator: Sketch 43.2 (39069) - http://www.bohemiancoding.com/sketch -->
  <title
     id="title2">thumbs-up</title>
  <desc
     id="desc4">Created with Sketch.</desc>
  <defs
     id="defs6" />
  <g
     id="Page-1"
     stroke="none"
     stroke-width="1"
     fill="none"
     fill-rule="evenodd"
     stroke-linecap="round">
    <g
       id="Artboard-4"
       transform="translate(-708.000000, -643.000000)"
       stroke="#585858"
       stroke-width="2"
       style="stroke:#ffffff;stroke-opacity:1">
      <g
         id="256"
         transform="translate(708.000000, 643.000000)"
         style="stroke:#ffffff;stroke-opacity:1">
        <path
           d="M6,14 C6,16.5 6.5,19 8,19 L16.9938335,19 C17.5495239,19 18.1819788,18.5956028 18.4072817,18.0949295 L20.8562951,12.6526776 C21.7640882,10.6353595 20.7154925,9 18.5092545,9 L15.5,9 C15.5,9 18.5,3 15,3 C12.5,3 11.5,9 8,9 C6.5,9 6,11.5 6,14 Z"
           id="Path-188"
           stroke-linejoin="round"
           style="stroke:#ffffff;stroke-opacity:1" />
        <path
           d="M4,8.5 C4,8.5 3,11 3,14 C3,17 4,19.5 4,19.5"
           id="Path-189"
           style="stroke:#ffffff;stroke-opacity:1" />
      </g>
    </g>
  </g>
</svg>
